…
```r
disease
```

```
## # A tibble: 164,433 x 9
##    Disease  County   Year Sex   Cases Population Rate  Lower_95__CI Upper_95__CI
##    <chr>    <chr>   <dbl> <chr> <dbl>      <dbl> <chr>        <dbl>        <dbl>
##  1 Amebias… Alameda  2001 Fema…     7     746596 0.93…        0.377        1.93 
##  2 Amebias… Alameda  2001 Male      9     718968 1.25…        0.572        2.38 
##  3 Amebias… Alameda  2001 Total    16    1465564 1.09…        0.624        1.77 
##  4 Amebias… Alameda  2002 Fema…     4     747987 0.53…        0.146        1.37 
##  5 Amebias… Alameda  2002 Male      5     720481 0.69…        0.225        1.62 
##  6 Amebias… Alameda  2002 Total     9    1468468 0.61…        0.28         1.16 
##  7 Amebias… Alameda  2003 Fema…     1     747441 0.13…        0.003        0.745
##  8 Amebias… Alameda  2003 Male      5     719746 0.69…        0.226        1.62 
##  9 Amebias… Alameda  2003 Total     7    1467187 0.47…        0.192        0.983
## 10 Amebias… Alameda  2004 Fema…     3     746723 0.40…        0.083        1.17 
## # … with 164,423 more rows
```
…
```
## [1] "disease"     "county"      "year"        "sex"         "cases"      
## [6] "population"  "rate"        "lower_95_ci" "upper_95_ci"
```

## Remove data we will not use

```r
disease_data <- disease_tidy %>% 
  select(disease, county, year, sex, cases, population)
disease_data
```

```
## # A tibble: 164,433 x 6
##    disease   county   year sex    cases population
##    <chr>     <chr>   <dbl> <chr>  <dbl>      <dbl>
##  1 Amebiasis Alameda  2001 Female     7     746596
##  2 Amebiasis Alameda  2001 Male       9     718968
##  3 Amebiasis Alameda  2001 Total     16    1465564
##  4 Amebiasis Alameda  2002 Female     4     747987
##  5 Amebiasis Alameda  2002 Male       5     720481
##  6 Amebiasis Alameda  2002 Total      9    1468468
##  7 Amebiasis Alameda  2003 Female     1     747441
##  8 Amebiasis Alameda  2003 Male       5     719746
##  9 Amebiasis Alameda  2003 Total      7    1467187
## 10 Amebiasis Alameda  2004 Female     3     746723
## # … with 164,423 more rows
```
…
1. Which disease is most prevalent throughout all of California?

```r
disease_data %>%
  filter(county!="California", sex=="Total") %>%
  group_by(disease) %>%
  summarise(total_cases = sum(cases)) %>%
  arrange(desc(total_cases))
```

```
## # A tibble: 53 x 2
##    disease                                          total_cases
##    <chr>                                                  <dbl>
##  1 Campylobacteriosis                                    130249
##  2 Salmonellosis                                          92173
##  3 Coccidioidomycosis                                     73798
##  4 Giardiasis                                             41974
##  5 Shigellosis                                            36605
##  6 Shiga toxin-producing E. coli (STEC) without HUS       13686
##  7 Cryptosporidiosis                                       7220
##  8 Amebiasis                                               6939
##  9 Legionellosis                                           4774
## 10 Vibrio Infection (non-Cholera)                          3058
## # … with 43 more rows
```
…
3. What county has the most total disease cases?

```r
disease_data %>%
  filter(county!="California", sex=="Total") %>%
  group_by(county) %>%
  summarise(sum_cases = sum(cases)) %>%
  arrange(desc(sum_cases))
```

```
## # A tibble: 58 x 2
##    county        sum_cases
##    <chr>             <dbl>
##  1 Los Angeles       89165
##  2 Kern              38682
##  3 San Diego         38002
##  4 Orange            23544
##  5 Santa Clara       22873
##  6 San Francisco     20776
##  7 Alameda           20167
##  8 Fresno            18597
##  9 Riverside         12448
## 10 Sacramento        11875
## # … with 48 more rows
```
…
4. County with least total disease cases?

```r
disease_data %>%
  filter(county!="California", sex=="Total") %>%
  group_by(county) %>%
  summarise(sum_cases = sum(cases)) %>%
  arrange(sum_cases)
```

```
## # A tibble: 58 x 2
##    county    sum_cases
##    <chr>         <dbl>
##  1 Alpine            2
##  2 Sierra           38
##  3 Modoc            47
##  4 Trinity          74
##  5 Mariposa        122
##  6 Del Norte       133
##  7 Plumas          152
##  8 Lassen          158
##  9 Mono            167
## 10 Colusa          181
## # … with 48 more rows
```
…
5. Does population affect case numbers for all of the counties? Not just LA and Alpine?


```r
cases_overall <- disease_data %>%
  select(county, population, sex, cases) %>%
  filter(county!="California", sex=="Total") %>%
  group_by(county) %>%
  summarise(total_cases = sum(cases)) %>%
  arrange(desc(total_cases))
cases_overall
```

```
## # A tibble: 58 x 2
##    county        total_cases
##    <chr>               <dbl>
##  1 Los Angeles         89165
##  2 Kern                38682
##  3 San Diego           38002
##  4 Orange              23544
##  5 Santa Clara         22873
##  6 San Francisco       20776
##  7 Alameda             20167
##  8 Fresno              18597
##  9 Riverside           12448
## 10 Sacramento          11875
## # … with 48 more rows
```
…
