…
```r
disease
```

```
## # A tibble: 164,433 x 9
##    Disease  County   Year Sex   Cases Population Rate  Lower_95__CI Upper_95__CI
##    <chr>    <chr>   <dbl> <chr> <dbl>      <dbl> <chr>        <dbl>        <dbl>
##  1 Amebias… Alameda  2001 Fema…     7     746596 0.93…        0.377        1.93 
##  2 Amebias… Alameda  2001 Male      9     718968 1.25…        0.572        2.38 
##  3 Amebias… Alameda  2001 Total    16    1465564 1.09…        0.624        1.77 
##  4 Amebias… Alameda  2002 Fema…     4     747987 0.53…        0.146        1.37 
##  5 Amebias… Alameda  2002 Male      5     720481 0.69…        0.225        1.62 
##  6 Amebias… Alameda  2002 Total     9    1468468 0.61…        0.28         1.16 
##  7 Amebias… Alameda  2003 Fema…     1     747441 0.13…        0.003        0.745
##  8 Amebias… Alameda  2003 Male      5     719746 0.69…        0.226        1.62 
##  9 Amebias… Alameda  2003 Total     7    1467187 0.47…        0.192        0.983
## 10 Amebias… Alameda  2004 Fema…     3     746723 0.40…        0.083        1.17 
## # … with 164,423 more rows
```
…
```
## [1] "disease"     "county"      "year"        "sex"         "cases"      
## [6] "population"  "rate"        "lower_95_ci" "upper_95_ci"
```

## Remove data we will not use

```r
disease_data <- disease_tidy %>% 
  select(disease, county, year, sex, cases, population)
disease_data
```

```
## # A tibble: 164,433 x 6
##    disease   county   year sex    cases population
##    <chr>     <chr>   <dbl> <chr>  <dbl>      <dbl>
##  1 Amebiasis Alameda  2001 Female     7     746596
##  2 Amebiasis Alameda  2001 Male       9     718968
##  3 Amebiasis Alameda  2001 Total     16    1465564
##  4 Amebiasis Alameda  2002 Female     4     747987
##  5 Amebiasis Alameda  2002 Male       5     720481
##  6 Amebiasis Alameda  2002 Total      9    1468468
##  7 Amebiasis Alameda  2003 Female     1     747441
##  8 Amebiasis Alameda  2003 Male       5     719746
##  9 Amebiasis Alameda  2003 Total      7    1467187
## 10 Amebiasis Alameda  2004 Female     3     746723
## # … with 164,423 more rows
```
…
## Remove NAs from data

```r
final_disease_data <- disease_data %>% 
  na.omit()
final_disease_data
```

```
## # A tibble: 160,313 x 6
##    disease   county   year sex    cases population
##    <chr>     <chr>   <dbl> <chr>  <dbl>      <dbl>
##  1 Amebiasis Alameda  2001 Female     7     746596
##  2 Amebiasis Alameda  2001 Male       9     718968
##  3 Amebiasis Alameda  2001 Total     16    1465564
##  4 Amebiasis Alameda  2002 Female     4     747987
##  5 Amebiasis Alameda  2002 Male       5     720481
##  6 Amebiasis Alameda  2002 Total      9    1468468
##  7 Amebiasis Alameda  2003 Female     1     747441
##  8 Amebiasis Alameda  2003 Male       5     719746
##  9 Amebiasis Alameda  2003 Total      7    1467187
## 10 Amebiasis Alameda  2004 Female     3     746723
## # … with 160,303 more rows
```
…
